[
  {
    "cost": "sseeo",
    "production": "d",
    "age": "0",
    "points": 0
  },
  {
    "cost": "eeoo",
    "production": "s",
    "age": "0",
    "points": 0
  },
  {
    "cost": "rrrr",
    "production": "s",
    "age": "0",
    "points": "1"
  },
  {
    "cost": "rroed",
    "production": "s",
    "age": "0",
    "points": 0
  },
  {
    "cost": "dsro",
    "production": "e",
    "age": "0",
    "points": 0
  },
  {
    "cost": "rrr",
    "production": "e",
    "age": "0",
    "points": 0
  },
  {
    "cost": "dsro",
    "production": "e",
    "age": "0",
    "points": 0
  },
  {
    "cost": "srro",
    "production": "e",
    "age": "0",
    "points": 0
  },
  {
    "cost": "ddd",
    "production": "r",
    "age": "0",
    "points": 0
  },
  {
    "cost": "seeer",
    "production": "s",
    "age": "0",
    "points": 0
  },
  {
    "cost": "ddee",
    "production": "o",
    "age": "0",
    "points": 0
  },
  {
    "cost": "dds",
    "production": "e",
    "age": "0",
    "points": 0
  },
  {
    "cost": "oooo",
    "production": "e",
    "age": "0",
    "points": 0
  },
  {
    "cost": "eee",
    "production": "o",
    "age": "0",
    "points": 0
  },
  {
    "cost": "dssse",
    "production": "e",
    "age": "0",
    "points": 0
  },
  {
    "cost": "ddrr",
    "production": "r",
    "age": "0",
    "points": 0
  },
  {
    "cost": "ooo",
    "production": "s",
    "age": "0",
    "points": 0
  },
  {
    "cost": "ood",
    "production": "s",
    "age": "0",
    "points": 0
  },
  {
    "cost": "eer",
    "production": "o",
    "age": "0",
    "points": 0
  },
  {
    "cost": "ssss",
    "production": "o",
    "age": "1",
    "points": 0
  },
  {
    "cost": "dddd",
    "production": "r",
    "age": "1",
    "points": 0
  },
  {
    "cost": "ddseo",
    "production": "r",
    "age": "0",
    "points": 0
  },
  {
    "cost": "dero",
    "production": "s",
    "age": "0",
    "points": 0
  },
  {
    "cost": "dsser",
    "production": "o",
    "age": "0",
    "points": 0
  },
  {
    "cost": "ooed",
    "production": "r",
    "age": "0",
    "points": 0
  },
  {
    "cost": "orrre",
    "production": "o",
    "age": "0",
    "points": 0
  },
  {
    "cost": "seero",
    "production": "d",
    "age": "0",
    "points": 0
  },
  {
    "cost": "sss",
    "production": "d",
    "age": "0",
    "points": 0
  },
  {
    "cost": "dddso",
    "production": "d",
    "age": "0",
    "points": 0
  },
  {
    "cost": "dseo",
    "production": "r",
    "age": "0",
    "points": 0
  },
  {
    "cost": "eeee",
    "production": "d",
    "age": "1",
    "points": 0
  },
  {
    "cost": "dser",
    "production": "o",
    "age": "0",
    "points": 0
  },
  {
    "cost": "sero",
    "production": "d",
    "age": "0",
    "points": 0
  },
  {
    "cost": "ssoo",
    "production": "d",
    "age": "0",
    "points": 0
  },
  {
    "cost": "ddssr",
    "production": "o",
    "age": "0",
    "points": 0
  },
  {
    "cost": "rro",
    "production": "d",
    "age": "0",
    "points": 0
  },
  {
    "cost": "drooo",
    "production": "r",
    "age": "0",
    "points": 0
  },
  {
    "cost": "eerrd",
    "production": "s",
    "age": "0",
    "points": 0
  },
  {
    "cost": "sse",
    "production": "r",
    "age": "0",
    "points": 0
  },
  {
    "cost": "ssrr",
    "production": "e",
    "age": "0",
    "points": 0
  },
  {
    "cost": "dddooooo",
    "production": "r",
    "age": "1",
    "points": "2"
  },
  {
    "cost": "dddrrooo",
    "production": "r",
    "age": "1",
    "points": "1"
  },
  {
    "cost": "eeeeerrr",
    "production": "o",
    "age": "1",
    "points": "2"
  },
  {
    "cost": "ddsssrrr",
    "production": "d",
    "age": "1",
    "points": "1"
  },
  {
    "cost": "dddeerrr",
    "production": "e",
    "age": "1",
    "points": "1"
  },
  {
    "cost": "sseeeooo",
    "production": "s",
    "age": "1",
    "points": "1"
  },
  {
    "cost": "oooooo",
    "production": "o",
    "age": "1",
    "points": "3"
  },
  {
    "cost": "rrrrrr",
    "production": "r",
    "age": "1",
    "points": "3"
  },
  {
    "cost": "dddeeeoo",
    "production": "o",
    "age": "1",
    "points": "1"
  },
  {
    "cost": "ooooo",
    "production": "r",
    "age": "1",
    "points": "2"
  },
  {
    "cost": "eeeee",
    "production": "e",
    "age": "1",
    "points": "2"
  },
  {
    "cost": "oosssdd",
    "production": "e",
    "age": "1",
    "points": "1"
  },
  {
    "cost": "ddddsso",
    "production": "e",
    "age": "1",
    "points": "2"
  },
  {
    "cost": "oooordd",
    "production": "s",
    "age": "1",
    "points": "2"
  },
  {
    "cost": "ooorrdd",
    "production": "r",
    "age": "1",
    "points": "1"
  },
  {
    "cost": "eeeeee",
    "production": "e",
    "age": "1",
    "points": "3"
  },
  {
    "cost": "seeeerr",
    "production": "o",
    "age": "1",
    "points": "2"
  },
  {
    "cost": "dddssee",
    "production": "o",
    "age": "1",
    "points": "1"
  },
  {
    "cost": "dddddsss",
    "production": "s",
    "age": "1",
    "points": "2"
  },
  {
    "cost": "sssss",
    "production": "s",
    "age": "1",
    "points": "2"
  },
  {
    "cost": "rrrrr",
    "production": "d",
    "age": "1",
    "points": "2"
  },
  {
    "cost": "dddddd",
    "production": "d",
    "age": "1",
    "points": "3"
  },
  {
    "cost": "dssssee",
    "production": "r",
    "age": "1",
    "points": "2"
  },
  {
    "cost": "ssssseee",
    "production": "e",
    "age": "1",
    "points": "2"
  },
  {
    "cost": "eeerroo",
    "production": "d",
    "age": "1",
    "points": "1"
  },
  {
    "cost": "sseerrr",
    "production": "s",
    "age": "1",
    "points": "1"
  },
  {
    "cost": "dddddd",
    "production": "d",
    "age": "1",
    "points": "3"
  },
  {
    "cost": "rrrrrooo",
    "production": "d",
    "age": "1",
    "points": "2"
  },
  {
    "cost": "errrroo",
    "production": "d",
    "age": "1",
    "points": "2"
  },
  {
    "cost": "ddddd",
    "production": "o",
    "age": "1",
    "points": "2"
  },
  {
    "cost": "dddsssssseee",
    "production": "e",
    "age": "2",
    "points": "4"
  },
  {
    "cost": "ssseeerrrrrooo",
    "production": "d",
    "age": "2",
    "points": "3"
  },
  {
    "cost": "rrrrrrrooo",
    "production": "o",
    "age": "2",
    "points": "5"
  },
  {
    "cost": "dddssseeeeerrr",
    "production": "o",
    "age": "2",
    "points": "3"
  },
  {
    "cost": "ooooooo",
    "production": "d",
    "age": "2",
    "points": "4"
  },
  {
    "cost": "rrrrrrr",
    "production": "o",
    "age": "2",
    "points": "4"
  },
  {
    "cost": "eeeeeee",
    "production": "r",
    "age": "2",
    "points": "4"
  },
  {
    "cost": "ssssssseee",
    "production": "e",
    "age": "2",
    "points": "5"
  },
  {
    "cost": "ddddddd",
    "production": "s",
    "age": "2",
    "points": "4"
  },
  {
    "cost": "dddeeerrrooooo",
    "production": "s",
    "age": "2",
    "points": "3"
  },
  {
    "cost": "oooooorrrddd",
    "production": "d",
    "age": "2",
    "points": "4"
  },
  {
    "cost": "dddooooooo",
    "production": "d",
    "age": "2",
    "points": "5"
  },
  {
    "cost": "dddddddsss",
    "production": "s",
    "age": "2",
    "points": "5"
  },
  {
    "cost": "ssseeeeeerrr",
    "production": "r",
    "age": "2",
    "points": "4"
  },
  {
    "cost": "eeeeeeerrr",
    "production": "r",
    "age": "2",
    "points": "5"
  },
  {
    "cost": "eeerrrrrrooo",
    "production": "o",
    "age": "2",
    "points": "4"
  },
  {
    "cost": "eeeooosssssddd",
    "production": "r",
    "age": "2",
    "points": "3"
  },
  {
    "cost": "ddddddsssooo",
    "production": "s",
    "age": "2",
    "points": "4"
  },
  {
    "cost": "dddddsssrrrooo",
    "production": "e",
    "age": "2",
    "points": "3"
  },
  {
    "cost": "sssssss",
    "production": "e",
    "age": "2",
    "points": "4"
  }
]